<?xml version='1.0'?>
<ns2:test-suite xmlns:ns2='urn:model.allure.qatools.yandex.ru' start='1675364646725' stop='1675364669740'>
    <name>login:</name>
    <title>login:</title>
    <test-cases>
        <test-case start='1675364648755' status='passed' stop='1675364669648'>
            <name>Teste de Login @login</name>
            <title>Teste de Login @login</title>
            <labels>
                <label name='tag' value='@login'/>
            </labels>
            <parameters/>
            <steps>
                <step start='1675364650755' status='passed' stop='1675364668840'>
                    <name>I am on page "http://automationpratice.com.br/"</name>
                    <title>I am on page "http://automationpratice.com.br/"</title>
                    <attachments/>
                    <steps/>
                </step>
                <step start='1675364668848' status='passed' stop='1675364669183'>
                    <name>I click ".fa-user"</name>
                    <title>I click ".fa-user"</title>
                    <attachments/>
                    <steps/>
                </step>
                <step start='1675364669184' status='passed' stop='1675364669429'>
                    <name>I wait for text "Login", 10</name>
                    <title>I wait for text "Login", 10</title>
                    <attachments/>
                    <steps/>
                </step>
                <step start='1675364669429' status='passed' stop='1675364669621'>
                    <name>I click "#btnLogin"</name>
                    <title>I click "#btnLogin"</title>
                    <attachments/>
                    <steps/>
                </step>
                <step start='1675364669621' status='passed' stop='1675364669648'>
                    <name>I see "E-mail inválido."</name>
                    <title>I see "E-mail inválido."</title>
                    <attachments/>
                    <steps/>
                </step>
            </steps>
            <attachments/>
        </test-case>
    </test-cases>
</ns2:test-suite>