<?xml version='1.0'?>
<ns2:test-suite xmlns:ns2='urn:model.allure.qatools.yandex.ru' start='1675651569302' stop='1675651599040'>
    <name>Example Upload File:</name>
    <title>Example Upload File:</title>
    <test-cases>
        <test-case start='1675651570278' status='passed' stop='1675651598911'>
            <name>Fazendo upload de imagem @upload</name>
            <title>Fazendo upload de imagem @upload</title>
            <labels>
                <label name='tag' value='@upload'/>
            </labels>
            <parameters/>
            <steps>
                <step start='1675651571308' status='passed' stop='1675651579277'>
                    <name>I am on page "https://automationexercise.com/contact_us"</name>
                    <title>I am on page "https://automationexercise.com/contact_us"</title>
                    <attachments>
                        <attachment title='Screenshot of step I am on page "https://automationexercise.com/contact_us"' source='68dc3059-4bff-4214-a793-afc9db0bd694-attachment.png' type='image/png' size='141795'/>
                    </attachments>
                    <steps/>
                </step>
                <step start='1675651579277' status='passed' stop='1675651580193'>
                    <name>I fill field "name", "Kedo Bnu"</name>
                    <title>I fill field "name", "Kedo Bnu"</title>
                    <attachments>
                        <attachment title='Screenshot of step I fill field "name", "Kedo Bnu"' source='0b413065-28f6-474b-af9b-a696d2e417e6-attachment.png' type='image/png' size='142619'/>
                    </attachments>
                    <steps/>
                </step>
                <step start='1675651580193' status='passed' stop='1675651580985'>
                    <name>I fill field "email", "kedo@teste.com.br"</name>
                    <title>I fill field "email", "kedo@teste.com.br"</title>
                    <attachments>
                        <attachment title='Screenshot of step I fill field "email", "kedo@teste.com.br"' source='a63568a4-8257-420a-9fbf-2d039a01bea1-attachment.png' type='image/png' size='144889'/>
                    </attachments>
                    <steps/>
                </step>
                <step start='1675651580985' status='passed' stop='1675651581899'>
                    <name>I fill field "subject", "Teste de envio de imagem"</name>
                    <title>I fill field "subject", "Teste de envio de imagem"</title>
                    <attachments>
                        <attachment title='Screenshot of step I fill field "subject", "Teste de envio de imagem"' source='80e4215c-cea9-4c6b-82aa-f4c68ae28a89-attachment.png' type='image/png' size='145695'/>
                    </attachments>
                    <steps/>
                </step>
                <step start='1675651581899' status='passed' stop='1675651583324'>
                    <name>I fill field "#message", "Este é um teste de de envio de imagem pelo codeceptJS"</name>
                    <title>I fill field "#message", "Este é um teste de de envio de imagem pelo codeceptJS"</title>
                    <attachments>
                        <attachment title='Screenshot of step I fill field "#message", "Este é um teste de de envio de imagem pelo codeceptJS"' source='5c7cac04-5bda-4149-925f-ab880ee0dcc5-attachment.png' type='image/png' size='147917'/>
                    </attachments>
                    <steps/>
                </step>
                <step start='1675651587565' status='passed' stop='1675651592667'>
                    <name>I attach file ".form-control", "images/image_test.png"</name>
                    <title>I attach file ".form-control", "images/image_test.png"</title>
                    <attachments>
                        <attachment title='Screenshot of step I attach file ".form-control", "images/image_test.png"' source='988a8885-727e-4f45-9dd4-e3450f677cf5-attachment.png' type='image/png' size='148045'/>
                    </attachments>
                    <steps/>
                </step>
                <step start='1675651592667' status='passed' stop='1675651598908'>
                    <name>I click "submit"</name>
                    <title>I click "submit"</title>
                    <attachments>
                        <attachment title='Screenshot of step I click "submit"' source='7e6f416c-f082-42c3-bcca-244cfbde8a52-attachment.png' type='image/png' size='374253'/>
                    </attachments>
                    <steps/>
                </step>
            </steps>
            <attachments/>
        </test-case>
    </test-cases>
</ns2:test-suite>