<?xml version='1.0'?>
<ns2:test-suite xmlns:ns2='urn:model.allure.qatools.yandex.ru' start='1675651396512' stop='1675651421774'>
    <name>Example Upload File:</name>
    <title>Example Upload File:</title>
    <test-cases>
        <test-case start='1675651405831' status='failed' stop='1675651420968'>
            <name>Fazendo upload de imagem @upload</name>
            <title>Fazendo upload de imagem @upload</title>
            <labels>
                <label name='tag' value='@upload'/>
            </labels>
            <parameters/>
            <steps>
                <step start='1675651407695' status='passed' stop='1675651415914'>
                    <name>I am on page "https://automationexercise.com/contact_us"</name>
                    <title>I am on page "https://automationexercise.com/contact_us"</title>
                    <attachments>
                        <attachment title='Screenshot of step I am on page "https://automationexercise.com/contact_us"' source='1954009c-71c6-4414-8f7f-694c57c20ff2-attachment.png' type='image/png' size='244238'/>
                    </attachments>
                    <steps/>
                </step>
                <step start='1675651415915' status='passed' stop='1675651416803'>
                    <name>I fill field "name", "Kedo Bnu"</name>
                    <title>I fill field "name", "Kedo Bnu"</title>
                    <attachments>
                        <attachment title='Screenshot of step I fill field "name", "Kedo Bnu"' source='d2d60664-b083-48eb-9031-44ef6a1f2bf2-attachment.png' type='image/png' size='245372'/>
                    </attachments>
                    <steps/>
                </step>
                <step start='1675651416803' status='passed' stop='1675651417772'>
                    <name>I fill field "email", "kedo@teste.com.br"</name>
                    <title>I fill field "email", "kedo@teste.com.br"</title>
                    <attachments>
                        <attachment title='Screenshot of step I fill field "email", "kedo@teste.com.br"' source='c722bedf-bb9f-456d-bc11-2719f84935d2-attachment.png' type='image/png' size='249103'/>
                    </attachments>
                    <steps/>
                </step>
                <step start='1675651417772' status='passed' stop='1675651418806'>
                    <name>I fill field "subject", "Teste de envio de imagem"</name>
                    <title>I fill field "subject", "Teste de envio de imagem"</title>
                    <attachments>
                        <attachment title='Screenshot of step I fill field "subject", "Teste de envio de imagem"' source='72c8fb9c-0e59-4e93-a70d-8fe2f43e392a-attachment.png' type='image/png' size='250730'/>
                    </attachments>
                    <steps/>
                </step>
                <step start='1675651418806' status='passed' stop='1675651420383'>
                    <name>I fill field "#message", "Este é um teste de de envio de imagem pelo codeceptJS"</name>
                    <title>I fill field "#message", "Este é um teste de de envio de imagem pelo codeceptJS"</title>
                    <attachments>
                        <attachment title='Screenshot of step I fill field "#message", "Este é um teste de de envio de imagem pelo codeceptJS"' source='4226d3c1-1146-4a70-a7ed-34f7be22f6d4-attachment.png' type='image/png' size='253516'/>
                    </attachments>
                    <steps/>
                </step>
                <step start='1675651420384' status='passed' stop='1675651420921'>
                    <name>I attach file ".form-control", "images/image_test.png"</name>
                    <title>I attach file ".form-control", "images/image_test.png"</title>
                    <attachments>
                        <attachment title='Screenshot of step I attach file ".form-control", "images/image_test.png"' source='47690277-e2ea-478f-aa79-432b7322a8bf-attachment.png' type='image/png' size='253516'/>
                    </attachments>
                    <steps/>
                </step>
                <step start='1675651420921' status='failed' stop='1675651420963'>
                    <name>I click ".btn-primary pull-left submit_form"</name>
                    <title>I click ".btn-primary pull-left submit_form"</title>
                    <attachments/>
                    <steps/>
                </step>
            </steps>
            <attachments>
                <attachment title='Screenshot of step I click ".btn-primary pull-left submit_form"' source='b55c6c32-7b67-46dc-967d-a0c6d866c19b-attachment.png' type='image/png' size='253674'/>
                <attachment title='Last Seen Screenshot' source='8c2093f0-9ee3-4509-899e-ce8063524ccf-attachment.png' type='image/png' size='226708'/>
            </attachments>
            <failure>
                <message>Clickable element ".btn-primary pull-left submit_form" was not found by text|CSS|XPath</message>
                <stack-trace>Error: Clickable element ".btn-primary pull-left submit_form" was not found by text|CSS|XPath
                    at new ElementNotFound (/Users/dalcoquio/qazando/projeto03r/node_modules/codeceptjs/lib/helper/errors/ElementNotFound.js:14:11)
                    at assertElementExists (/Users/dalcoquio/qazando/projeto03r/node_modules/codeceptjs/lib/helper/Playwright.js:2811:11)
                    at Playwright.proceedClick (/Users/dalcoquio/qazando/projeto03r/node_modules/codeceptjs/lib/helper/Playwright.js:2587:5)</stack-trace>
            </failure>
        </test-case>
    </test-cases>
</ns2:test-suite>